
{
  "exclusions" : [
    ["head",   "*", ["*"]],
    ["style",  "*", ["*"]],
    ["script", "*", ["*"]],
    ["button", "*", ["*"]],
    ["form",   "*", ["*"]],
    ["input",  "*", ["*"]]
  ],
  "inclusions" : [
    ["html", "*", ["*"]]
  ],
  "void_elements" : [
    "meta",
    "link",
    "img"
  ]
}
